<?xml version="1.0" encoding="utf-8"?>
<!-- Generator: Adobe Illustrator 22.0.0, SVG Export Plug-In . SVG Version: 6.00 Build 0)  -->
<svg version="1.1" id="_x31_" xmlns="http://www.w3.org/2000/svg" xmlns:xlink="http://www.w3.org/1999/xlink" x="0px" y="0px"
	 viewBox="0 0 41 96" style="enable-background:new 0 0 41 96;" xml:space="preserve">
<style type="text/css">
	.st0{fill:#FFFFFF;}
</style>
<g>
	<path class="st0" d="M11.9,9.3c-0.1-0.7,0.2-1.2,1-1.2h4.4c0.7,0,1.1,0.3,1.2,1l10.4,54.1C33.1,42.3,37.4,21.4,40.2,0H0.8l21.4,96
		h0.6c0.9-5.3,1.9-10.7,2.9-16L11.9,9.3z"/>
</g>
</svg>
